ngram_1,ngram_2
senado,federal
congresso,nacional
reforma,trabalhista
projeto,lei
aécio,neves
foro,privilegiado
senador,lasier
governo,federal
lava,jato
plc,282017
reforma,política
presidente,eunicio
segurança,pública
bancada,federal
reforma,previdência
debate,sobre
eduardo,braga
