ngram_1,ngram_2,freq
reforma,trabalhista,107
audiência,pública,97
bom,dia,82
anos,emancipação,67
reforma,política,50
saudamos,moradores,45
moradores,moradoras,45
reforma,previdência,44
foro,privilegiado,38
senado,aprova,33
presidente,eunicio,32
contra,reforma,32
abraço,otto555,32
melhor,abraço,32
conto,seguir,32
ainda,melhor,32
trabalhando,bahia,32
bahia,ainda,32
seguir,trabalhando,32
neste,momento,31
emancipação,município,30
daqui,pouco,30
a,garibaldifilho,29
município,parabéns,29
ensino,médio,29
debate,sobre,28
sobre,reforma,28
fala,sobre,28
grande,abraço,26
emancipação,parabéns,25
parabéns,todos,25
desenvolvimento,regional,24
hoje,dia,23
meio,ambiente,23
fim,foro,23
governo,temer,22
lúcia,vânia,22
comemora,anos,22
agricultura,familiar,21
rio,grande,21
participo,agora,21
comissão,desenvolvimento,20
governo,federal,20
segurança,pública,20
campo,grande,20
comissão,educação,19
povo,brasileiro,19
pública,sobre,18
reforma,agrária,18
reunião,comissão,18
