ngram_1,ngram_2,freq
bom,dia,156
audiência,pública,81
lava,jato,59
daqui,pouco,47
acompanhe,vivo,45
wellington,dias,43
governador,wellington,43
todos,prefeitos,39
hoje,dia,39
dias,atendendo,39
hoje,governador,39
atendendo,todos,39
prefeitos,ouvir…,39
equipe,analisando,38
todas,mensagens,38
ficarão,resposta,38
leia,mais,38
mensagens,ficarão,38
analisando,todas,38
resposta,obrigado,38
neste,momento,38
plenário,senado,35
saiba,mais,33
governo,federal,33
dia,amigos,31
michel,temer,31
violência,contra,30
governo,temer,29
aécio,neves,27
contra,temer,27
vamos,juntos,27
segurança,pública,25
reunião,comissão,25
fala,sobre,24
senado,federal,24
senado,aprova,23
pedro,chaves,23
reforma,trabalhista,23
contra,mulher,22
deve,ser,21
alvaro,dias,21
bolsa,família,21
dinheiro,público,21
diálogo,acesse,20
novo,canal,20
mais,assessoria,20
canal,ampliar,20
ferramentas,diálogo,20
políticas,públicas,20
criamos,novo,20
