ngram_1,ngram_2,freq
bom,dia,82
audiência,pública,53
leia,mais,49
projeto,lei,39
governo,federal,30
comissão,assuntos,30
neste,momento,28
direitos,humanos,27
hoje,dia,24
mais,assessoria,24
michel,temer,22
senado,aprovou,20
senado,aprova,20
parabéns,todos,20
medida,provisória,19
assuntos,econômicos,19
aécio,neves,19
dia,amigos,19
debate,sobre,19
fala,sobre,19
estados,municípios,18
direitos,trabalhadores,18
reunião,bancada,18
incentivos,fiscais,17
plenário,senado,17
lúcia,vânia,17
senado,federal,17
senador,lasier,17
paulo,rocha,17
reunião,comissão,17
brasil,247,17
sobre,projeto,17
imposto,renda,16
redes,sociais,16
políticas,públicas,16
congresso,nacional,16
reforma,trabalhista,16
daqui,pouco,16
pedro,chaves,16
jornal,folha,16
projeto,autoria,15
conversamos,sobre,14
todos,brasileiros,14
governo,temer,14
pessoas,deficiência,14
minas,gerais,14
câmara,deputados,14
senadora,lúcia,13
comissão,educação,13
assuntos,sociais,13
