bigram,perca,quant_pos,sen_pos,quant_neg,sen_neg,quant_neutro,sen_neutro
"reforma,previdência",,2,"['ArmandoPTB_filtrado.csv','romerojuca_filtrado.csv']",10,"[ 'Sen_PauloRocha_filtrado.csv', 'SenadoraRegina_filtrado.csv', 'anaamelialemos_filtrado.csv', 'eduardoamorimse_filtrado.csv',  'fatimabezerra_filtrado.csv','joaocapi_filtrado.csv', 'josepimentel_filtrado.csv', 'lidicedamata_filtrado.csv', 'paulopaim_filtrado.csv', 'vanessasenadora_filtrado.csv']",1,['ronaldocaiado_filtrado.csv']
"aécio,neves",,7,"['AecioNeves_filtrado.csv', 'Senador_Ataides_filtrado.csv', 'joseagripino_filtrado.csv', 'paulobauer45_filtrado.csv',  'robertorocha400_filtrado.csv', 'senadorflexa_filtrado.csv', 'tassocomvoce_filtrado.csv']",6,"['Lucia_Vania_filtrado.csv', 'anaamelialemos_filtrado.csv', 'humbertocostapt_filtrado.csv', 'joaocapi_filtrado.csv',  'lidicedamata_filtrado.csv', 'requiaopmdb_filtrado.csv']",0,
"povos,indígenas",,,,,,,
"michel,temer",,,,,,,
"presidente,dilma",,4,"['ArmandoPTB_filtrado.csv', 'KatiaAbreu_filtrado.csv', 'joaocapi_filtrado.csv', 'randolfeap_filtrado.csv']",15,"['AecioNeves_filtrado.csv', 'Lucia_Vania_filtrado.csv', 'RicardoFerraco_filtrado.csv', 'Senador_Ataides_filtrado.csv', 'anaamelialemos_filtrado.csv', 'cassiocl_filtrado.csv', 'darioberger_filtrado.csv', 'davialcolumbre_filtrado.csv', 'joseagripino_filtrado.csv', 'romerojuca_filtrado.csv', 'sen_wellington_filtrado.csv', 'senadormoka_filtrado.csv', 'tassocomvoce_filtrado.csv', 'wildermorais_filtrado.csv', 'zezeperrella_filtrado.csv']",1,['joseserra__filtrado.csv']
"lava,jato",,,,,,,
"presidente,lula",,5,"['Sen_PauloRocha_filtrado.csv', 'SenadoraRegina_filtrado.csv', 'gleisi_filtrado.csv', 'humbertocostapt_filtrado.csv', 'jorgeviana_filtrado.csv']",0,,0,
"bolsa,família",,7,"['ArmandoPTB_filtrado.csv', 'Lucia_Vania_filtrado.csv', 'SenadoraRegina_filtrado.csv', 'fatimabezerra_filtrado.csv', 'gleisi_filtrado.csv', 'humbertocostapt_filtrado.csv', 'josepimentel_filtrado.csv']",0,,2,"['AecioNeves_filtrado.csv', 'romerojuca_filtrado.csv’]"
"maioridade,penal",,4,"['MagnoMalta_filtrado.csv', 'RicardoFerraco_filtrado.csv, 'ottoalencar_filtrado.csv', 'senadorflexa_filtrado.csv']",4,"['gleisi_filtrado.csv', 'lidicedamata_filtrado.csv', 'lindberghfarias_filtrado.csv', 'ValadaresPSB_filtrado.csv']",0,
"agricultura,familiar",,,,,,,
"eduardo,cunha",,1,['SenadoraRegina_filtrado.csv'],4,"['lindberghfarias_filtrado.csv', 'randolfeap_filtrado.csv', 'requiaopmdb_filtrado.csv', 'vanessasenadora_filtrado.csv’]",1,['josepimentel_filtrado.csv']
"reforma,trabalhista",,8,"['ArmandoPTB_filtrado.csv', 'EduardoLopesPRB_filtrado.csv', 'JoseMedeirosMT_filtrado.csv', 'RicardoFerraco_filtrado.csv', 'SenadoraMarta_filtrado.csv',  'romerojuca_filtrado.csv', 'ronaldocaiado_filtrado.csv', 'wildermorais_filtrado.csv']",17,"['AngelaPortelaRR_filtrado.csv', 'EduardoBraga_AM_filtrado.csv', 'Sen_PauloRocha_filtrado.csv', 'SenadoraRegina_filtrado.csv', 'ValadaresPSB_filtrado.csv', 'eduardoamorimse_filtrado.csv', 'fatimabezerra_filtrado.csv', 'gleisi_filtrado.csv', 'humbertocostapt_filtrado.csv', 'joaocapi_filtrado.csv', 'jorgeviana_filtrado.csv', 'josepimentel_filtrado.csv', 'lidicedamata_filtrado.csv', 'lindberghfarias_filtrado.csv', 'paulopaim_filtrado.csv', 'requiaopmdb_filtrado.csv', 'vanessasenadora_filtrado.csv']",1,['EunicioSenador_filtrado.csv']
"reforma,política",,,,,,,
