bigram,perca,quant_pos,senador_pos,quant_neg,senador_neg
"reforma,previdência",0,5,"['ArmandoPTB_filtrado.csv', 'Sen_PauloRocha_filtrado.csv', 'SenadoraRegina_filtrado.csv', 'ronaldocaiado_filtrado.csv', 'vanessasenadora_filtrado.csv']",8,"['anaamelialemos_filtrado.csv', 'eduardoamorimse_filtrado.csv', 'fatimabezerra_filtrado.csv', 'joaocapi_filtrado.csv', 'josepimentel_filtrado.csv', 'lidicedamata_filtrado.csv', 'paulopaim_filtrado.csv', 'romerojuca_filtrado.csv']"
"aécio,neves",0,7,"['Senador_Ataides_filtrado.csv', 'humbertocostapt_filtrado.csv', 'joseagripino_filtrado.csv', 'lidicedamata_filtrado.csv', 'requiaopmdb_filtrado.csv', 'robertorocha400_filtrado.csv', 'tassocomvoce_filtrado.csv']",6,"['AecioNeves_filtrado.csv', 'Lucia_Vania_filtrado.csv', 'anaamelialemos_filtrado.csv', 'joaocapi_filtrado.csv', 'paulobauer45_filtrado.csv', 'senadorflexa_filtrado.csv']"
"povos,indígenas",0,4,"['Sen_PauloRocha_filtrado.csv', 'SenadoraRegina_filtrado.csv', 'joaocapi_filtrado.csv', 'vanessasenadora_filtrado.csv']",2,"['TelmarioMotaRR_filtrado.csv', 'jorgeviana_filtrado.csv']"
"michel,temer",3,10,"['EduardoBraga_AM_filtrado.csv', 'EunicioSenador_filtrado.csv', 'Eunicio_filtrado.csv', 'Sen_PauloRocha_filtrado.csv', 'Senador_Ataides_filtrado.csv', 'SenadoraRegina_filtrado.csv', 'paulopaim_filtrado.csv', 'requiaopmdb_filtrado.csv', 'ronaldocaiado_filtrado.csv', 'vanessasenadora_filtrado.csv']",15,"['AecioNeves_filtrado.csv', 'KatiaAbreu_filtrado.csv', 'alvarodias__filtrado.csv', 'davialcolumbre_filtrado.csv', 'fatimabezerra_filtrado.csv', 'garibaldifilho_filtrado.csv', 'gladsoncameli_filtrado.csv', 'humbertocostapt_filtrado.csv', 'joaocapi_filtrado.csv', 'jorgeviana_filtrado.csv', 'josemaranhaopb_filtrado.csv', 'randolfeap_filtrado.csv', 'romerojuca_filtrado.csv', 'senadormoka_filtrado.csv', 'senpedrochaves_filtrado.csv']"
"presidente,dilma",1,4,"['ArmandoPTB_filtrado.csv', 'Senador_Ataides_filtrado.csv', 'anaamelialemos_filtrado.csv', 'tassocomvoce_filtrado.csv']",15,"['AecioNeves_filtrado.csv', 'KatiaAbreu_filtrado.csv', 'Lucia_Vania_filtrado.csv', 'RicardoFerraco_filtrado.csv', 'darioberger_filtrado.csv', 'davialcolumbre_filtrado.csv', 'joaocapi_filtrado.csv', 'joseagripino_filtrado.csv', 'joseserra__filtrado.csv', 'randolfeap_filtrado.csv', 'romerojuca_filtrado.csv', 'sen_wellington_filtrado.csv', 'senadormoka_filtrado.csv', 'wildermorais_filtrado.csv', 'zezeperrella_filtrado.csv']"
"lava,jato",0,11,"['AecioNeves_filtrado.csv', 'MagnoMalta_filtrado.csv', 'Sen_PauloRocha_filtrado.csv', 'SenadoraMarta_filtrado.csv', 'SenadoraRegina_filtrado.csv', 'alvarodias__filtrado.csv', 'jorgeviana_filtrado.csv', 'lindberghfarias_filtrado.csv', 'requiaopmdb_filtrado.csv', 'ronaldocaiado_filtrado.csv', 'vanessasenadora_filtrado.csv']",13,"['JoseMedeirosMT_filtrado.csv', 'RicardoFerraco_filtrado.csv', 'Sen_Cristovam_filtrado.csv', 'Senador_Ataides_filtrado.csv', 'SimoneTebetms_filtrado.csv', 'anaamelialemos_filtrado.csv', 'gleisi_filtrado.csv', 'humbertocostapt_filtrado.csv', 'joaocapi_filtrado.csv', 'josepimentel_filtrado.csv', 'randolfeap_filtrado.csv', 'romerojuca_filtrado.csv', 'senadormoka_filtrado.csv']"
"presidente,lula",0,2,"['SenadoraRegina_filtrado.csv', 'jorgeviana_filtrado.csv']",4,"['Sen_PauloRocha_filtrado.csv', 'fatimabezerra_filtrado.csv', 'gleisi_filtrado.csv', 'humbertocostapt_filtrado.csv']"
"bolsa,família",1,4,"['Lucia_Vania_filtrado.csv', 'SenadoraRegina_filtrado.csv', 'humbertocostapt_filtrado.csv', 'josepimentel_filtrado.csv']",4,"['AecioNeves_filtrado.csv', 'fatimabezerra_filtrado.csv', 'gleisi_filtrado.csv', 'romerojuca_filtrado.csv']"
"maioridade,penal",2,3,"['MagnoMalta_filtrado.csv', 'lidicedamata_filtrado.csv', 'ottoalencar_filtrado.csv']",3,"['RicardoFerraco_filtrado.csv', 'lindberghfarias_filtrado.csv', 'senadorflexa_filtrado.csv']"
"agricultura,familiar",1,6,"['fatimabezerra_filtrado.csv', 'fbezerracoelho_filtrado.csv', 'gleisi_filtrado.csv', 'humbertocostapt_filtrado.csv', 'josepimentel_filtrado.csv', 'pinheirosenador_filtrado.csv']",0,[]
"eduardo,cunha",0,5,"['SenadoraRegina_filtrado.csv', 'lindberghfarias_filtrado.csv', 'randolfeap_filtrado.csv', 'requiaopmdb_filtrado.csv', 'vanessasenadora_filtrado.csv']",1,['josepimentel_filtrado.csv']
"reforma,trabalhista",0,11,"['ArmandoPTB_filtrado.csv', 'EduardoBraga_AM_filtrado.csv', 'EunicioSenador_filtrado.csv', 'Sen_PauloRocha_filtrado.csv', 'SenadoraMarta_filtrado.csv', 'SenadoraRegina_filtrado.csv', 'eduardoamorimse_filtrado.csv', 'humbertocostapt_filtrado.csv', 'romerojuca_filtrado.csv', 'ronaldocaiado_filtrado.csv', 'vanessasenadora_filtrado.csv']",15,"['AngelaPortelaRR_filtrado.csv', 'EduardoLopesPRB_filtrado.csv', 'JoseMedeirosMT_filtrado.csv', 'RicardoFerraco_filtrado.csv', 'ValadaresPSB_filtrado.csv', 'fatimabezerra_filtrado.csv', 'gleisi_filtrado.csv', 'joaocapi_filtrado.csv', 'jorgeviana_filtrado.csv', 'josepimentel_filtrado.csv', 'lidicedamata_filtrado.csv', 'lindberghfarias_filtrado.csv', 'paulopaim_filtrado.csv', 'requiaopmdb_filtrado.csv', 'wildermorais_filtrado.csv']"
"reforma,política",2,12,"['Anastasia_filtrado.csv', 'EunicioSenador_filtrado.csv', 'Eunicio_filtrado.csv', 'Lucia_Vania_filtrado.csv', 'SenadoraRegina_filtrado.csv', 'alvarodias__filtrado.csv', 'anaamelialemos_filtrado.csv', 'joseserra__filtrado.csv', 'lasiermartins_filtrado.csv', 'pinheirosenador_filtrado.csv', 'romerojuca_filtrado.csv', 'ronaldocaiado_filtrado.csv']",14,"['AecioNeves_filtrado.csv', 'EduardoLopesPRB_filtrado.csv', 'RicardoFerraco_filtrado.csv', 'SenadoraMarta_filtrado.csv', 'TelmarioMotaRR_filtrado.csv', 'ValadaresPSB_filtrado.csv', 'darioberger_filtrado.csv', 'garibaldifilho_filtrado.csv', 'joaocapi_filtrado.csv', 'josepimentel_filtrado.csv', 'ottoalencar_filtrado.csv', 'paulopaim_filtrado.csv', 'robertorocha400_filtrado.csv', 'vanessasenadora_filtrado.csv']"
