senador,class
pinheirosenador_filtrado.csv,0
vanessasenadora_filtrado.csv,5
KatiaAbreu_filtrado.csv,1
alvarodias__filtrado.csv,7
renancalheiros_filtrado.csv,0
gladsoncameli_filtrado.csv,7
humbertocostapt_filtrado.csv,3
josemaranhaopb_filtrado.csv,7
joseagripino_filtrado.csv,0
SimoneTebetms_filtrado.csv,0
robertorocha400_filtrado.csv,6
EunicioSenador_filtrado.csv,4
elmanoferrer_filtrado.csv,0
Reguffe_filtrado.csv,0
lasiermartins_filtrado.csv,0
fbezerracoelho_filtrado.csv,0
EduardoLopesPRB_filtrado.csv,6
RomarioOnze_filtrado.csv,0
SenadoraMarta_filtrado.csv,0
jader_barbalho_filtrado.csv,0
sen_wellington_filtrado.csv,0
EduardoBraga_AM_filtrado.csv,4
josepimentel_filtrado.csv,9
AecioNeves_filtrado.csv,1
senpedrochaves_filtrado.csv,7
senadorlobao_filtrado.csv,0
ValadaresPSB_filtrado.csv,6
requiaopmdb_filtrado.csv,8
RaimundoLiraPB_filtrado.csv,0
BiudeLira_filtrado.csv,0
Eunicio_filtrado.csv,4
senadormoka_filtrado.csv,1
Cidinho_Santos_filtrado.csv,0
gleisi_filtrado.csv,2
RicardoFerraco_filtrado.csv,6
SenadoraRegina_filtrado.csv,5
joaocapi_filtrado.csv,1
senador_helio_filtrado.csv,0
Anastasia_filtrado.csv,0
Lucia_Vania_filtrado.csv,0
Sen_Cristovam_filtrado.csv,0
Collor_filtrado.csv,0
senadorpetecao_filtrado.csv,0
ronaldocaiado_filtrado.csv,4
davialcolumbre_filtrado.csv,1
AngelaPortelaRR_filtrado.csv,6
zezeperrella_filtrado.csv,0
fatimabezerra_filtrado.csv,2
lidicedamata_filtrado.csv,6
senadorarose_filtrado.csv,0
ciro_nogueira_filtrado.csv,0
anaamelialemos_filtrado.csv,0
lindberghfarias_filtrado.csv,8
joseserra__filtrado.csv,0
romerojuca_filtrado.csv,1
MagnoMalta_filtrado.csv,0
SENADORRAUPP_filtrado.csv,0
wildermorais_filtrado.csv,6
tassocomvoce_filtrado.csv,0
paulobauer45_filtrado.csv,0
jorgeviana_filtrado.csv,7
senadorflexa_filtrado.csv,0
ottoalencar_filtrado.csv,6
cassiocl_filtrado.csv,0
eduardoamorimse_filtrado.csv,0
darioberger_filtrado.csv,6
randolfeap_filtrado.csv,1
Senador_Ataides_filtrado.csv,0
ArmandoPTB_filtrado.csv,4
JoseMedeirosMT_filtrado.csv,6
paulopaim_filtrado.csv,6
SenVicentinho_filtrado.csv,0
Sen_PauloRocha_filtrado.csv,5
garibaldifilho_filtrado.csv,7
acirgurgacz_filtrado.csv,0
TelmarioMotaRR_filtrado.csv,6
_filtrado.csv,0
